Chapter 5 Answers to excercises | Introduction to R
…
Try knitting the Rmarkdown again

5.4 Excercise 1

How many customers had a data-volume over 1000 in february 2019?

filter(kunder, tr_tot_data_vol_all_netw_3 > 1000)

## # A tibble: 198,235 x 25
##    source_date ar_key cust_id pc_l3_pd_spec_nm cpe_type cpe_net_type_cm…
##    <date>      <chr>  <chr>   <chr>            <chr>    <chr>           
##  1 2019-04-30  AAEBf… AAEBfr… MOBILE REGULAR   SMARTPH… 4G              
##  2 2019-04-30  AAEBf… AAEBfm… MOBILE REGULAR   SMARTPH… 4G              
##  3 2019-04-30  AAEBf… AAEBfm… MOBILE REGULAR   SMARTPH… 4G              
##  4 2019-04-30  AAEBf… AAEBfr… MOBILE REGULAR   SMARTPH… 4G              
##  5 2019-04-30  AAEBf… AAEBfr… MOBILE REGULAR   SMARTPH… 4G              
##  6 2019-04-30  AAEBf… AAEBft… MOBILE REGULAR   SMARTPH… 4G              
##  7 2019-04-30  AAEBf… AAEBft… MOBILE REGULAR   SMARTPH… 4G              
##  8 2019-04-30  AAEBf… AAEBfv… MOBILE REGULAR   SMARTPH… 4G              
##  9 2019-04-30  AAEBf… AAEBfm… MOBILE REGULAR   SMARTPH… 4G              
## 10 2019-04-30  AAEBf… AAEBfq… MOBILE REGULAR   SMARTPH… 4G              
## # … with 198,225 more rows, and 19 more variables: pc_priceplan_nm <chr>,
## #   sc_l5_sales_cnl <chr>, rt_fst_cstatus_act_dt <date>,
## #   tr_tot_data_vol_all_netw_1 <dbl>, tr_tot_data_vol_all_netw_2 <dbl>,
## #   tr_tot_data_vol_all_netw_3 <dbl>, tr_tot_data_vol_all_netw_4 <dbl>,
## #   tr_tot_data_vol_all_netw_5 <dbl>, tr_tot_data_vol_all_netw_6 <dbl>,
## #   tr_tot_data_vol_all_netw_7 <dbl>, tr_tot_data_vol_all_netw_8 <dbl>,
## #   tr_tot_data_vol_all_netw_9 <dbl>, tr_tot_data_vol_all_netw_10 <dbl>,
## #   tr_tot_data_vol_all_netw_11 <dbl>, tr_tot_data_vol_all_netw_12 <dbl>,
## #   alloc_rrpu_amt <dbl>, alloc_rcm1pu_amt <dbl>, rrpu_amt_used <chr>,
## #   rcm1pu_amt_used <chr>

How many customers have been “active” longer than 2005?

filter(kunder, rt_fst_cstatus_act_dt < "2005-01-01")

## # A tibble: 15,837 x 25
##    source_date ar_key cust_id pc_l3_pd_spec_nm cpe_type cpe_net_type_cm…
##    <date>      <chr>  <chr>   <chr>            <chr>    <chr>           
##  1 2019-04-30  AAEBf… AAEBfg… MOBILE REGULAR   SMARTPH… 4G              
##  2 2019-04-30  AAEBf… AAEBfq… MOBILE REGULAR   SMARTPH… 4G              
##  3 2019-04-30  AAEBf… AAEBfm… MOBILE REGULAR   SMARTPH… 4G              
##  4 2019-04-30  AAEBf… AAEBfg… MOBILE REGULAR   SMARTPH… 4G              
##  5 2019-04-30  AAEBf… AAEBfk… MOBILE REGULAR   FEATURE… 3G              
##  6 2019-04-30  AAEBf… AAEBfu… MOBILE REGULAR   SMARTPH… 4G              
##  7 2019-04-30  AAEBf… AAEBfq… MOBILE REGULAR   MOBILE … <NA>            
##  8 2019-04-30  AAEBf… AAEBfr… MOBILE REGULAR   SMARTPH… 4G              
##  9 2019-04-30  AAEBf… AAEBfg… MOBILE REGULAR   MOBILE … <NA>            
## 10 2019-04-30  AAEBf… AAEBfu… MOBILE REGULAR   SMARTPH… 4G              
## # … with 15,827 more rows, and 19 more variables: pc_priceplan_nm <chr>,
## #   sc_l5_sales_cnl <chr>, rt_fst_cstatus_act_dt <date>,
## #   tr_tot_data_vol_all_netw_1 <dbl>, tr_tot_data_vol_all_netw_2 <dbl>,
## #   tr_tot_data_vol_all_netw_3 <dbl>, tr_tot_data_vol_all_netw_4 <dbl>,
## #   tr_tot_data_vol_all_netw_5 <dbl>, tr_tot_data_vol_all_netw_6 <dbl>,
## #   tr_tot_data_vol_all_netw_7 <dbl>, tr_tot_data_vol_all_netw_8 <dbl>,
## #   tr_tot_data_vol_all_netw_9 <dbl>, tr_tot_data_vol_all_netw_10 <dbl>,
## #   tr_tot_data_vol_all_netw_11 <dbl>, tr_tot_data_vol_all_netw_12 <dbl>,
## #   alloc_rrpu_amt <dbl>, alloc_rcm1pu_amt <dbl>, rrpu_amt_used <chr>,
## #   rcm1pu_amt_used <chr>

How many customers have a data-volume over 2000 in february and have a calculated revenue larger than 500 per month?

filter(kunder, tr_tot_data_vol_all_netw_3 > 2000 & alloc_rrpu_amt > 500)

## # A tibble: 3,758 x 25
##    source_date ar_key cust_id pc_l3_pd_spec_nm cpe_type cpe_net_type_cm…
##    <date>      <chr>  <chr>   <chr>            <chr>    <chr>           
##  1 2019-04-30  AAEBf… AAEBfr… MOBILE REGULAR   SMARTPH… 4G              
##  2 2019-04-30  AAEBf… AAEBfm… MOBILE REGULAR   SMARTPH… 4G              
##  3 2019-04-30  AAEBf… AAEBfm… MOBILE REGULAR   SMARTPH… 4G              
##  4 2019-04-30  AAEBf… AAEBft… MOBILE REGULAR   SMARTPH… 4G              
##  5 2019-04-30  AAEBf… AAEBfs… MOBILE REGULAR   SMARTPH… 4G              
##  6 2019-04-30  AAEBf… AAEBfi… MOBILE REGULAR   SMARTPH… 4G              
##  7 2019-04-30  AAEBf… AAEBft… MOBILE REGULAR   SMARTPH… 4G              
##  8 2019-04-30  AAEBf… AAEBfg… MOBILE REGULAR   SMARTPH… 4G              
##  9 2019-04-30  AAEBf… AAEBfh… MOBILE REGULAR   SMARTPH… 4G              
## 10 2019-04-30  AAEBf… AAEBfh… MOBILE REGULAR   SMARTPH… 4G              
## # … with 3,748 more rows, and 19 more variables: pc_priceplan_nm <chr>,
## #   sc_l5_sales_cnl <chr>, rt_fst_cstatus_act_dt <date>,
## #   tr_tot_data_vol_all_netw_1 <dbl>, tr_tot_data_vol_all_netw_2 <dbl>,
## #   tr_tot_data_vol_all_netw_3 <dbl>, tr_tot_data_vol_all_netw_4 <dbl>,
## #   tr_tot_data_vol_all_netw_5 <dbl>, tr_tot_data_vol_all_netw_6 <dbl>,
## #   tr_tot_data_vol_all_netw_7 <dbl>, tr_tot_data_vol_all_netw_8 <dbl>,
## #   tr_tot_data_vol_all_netw_9 <dbl>, tr_tot_data_vol_all_netw_10 <dbl>,
## #   tr_tot_data_vol_all_netw_11 <dbl>, tr_tot_data_vol_all_netw_12 <dbl>,
## #   alloc_rrpu_amt <dbl>, alloc_rcm1pu_amt <dbl>, rrpu_amt_used <chr>,
…
Knit the document again

5.5 Excercise 2

How many customers have a subscription with “Fast pris”?

filter(kunder, str_detect(pc_priceplan_nm, "Fast pris"))

## # A tibble: 170,324 x 25
##    source_date ar_key cust_id pc_l3_pd_spec_nm cpe_type cpe_net_type_cm…
##    <date>      <chr>  <chr>   <chr>            <chr>    <chr>           
##  1 2019-04-30  AAEBf… AAEBfr… MOBILE REGULAR   SMARTPH… 4G              
##  2 2019-04-30  AAEBf… AAEBfm… MOBILE REGULAR   SMARTPH… 4G              
##  3 2019-04-30  AAEBf… AAEBfm… MOBILE REGULAR   SMARTPH… 4G              
##  4 2019-04-30  AAEBf… AAEBfr… MOBILE REGULAR   SMARTPH… 4G              
##  5 2019-04-30  AAEBf… AAEBfg… MOBILE REGULAR   SMARTPH… 4G              
##  6 2019-04-30  AAEBf… AAEBfq… MOBILE REGULAR   SMARTPH… 4G              
##  7 2019-04-30  AAEBf… AAEBfr… MOBILE REGULAR   SMARTPH… 4G              
##  8 2019-04-30  AAEBf… AAEBft… MOBILE REGULAR   SMARTPH… 4G              
##  9 2019-04-30  AAEBf… AAEBfp… MOBILE REGULAR   SMARTPH… 4G              
## 10 2019-04-30  AAEBf… AAEBfv… MOBILE REGULAR   SMARTPH… 4G              
## # … with 170,314 more rows, and 19 more variables: pc_priceplan_nm <chr>,
## #   sc_l5_sales_cnl <chr>, rt_fst_cstatus_act_dt <date>,
## #   tr_tot_data_vol_all_netw_1 <dbl>, tr_tot_data_vol_all_netw_2 <dbl>,
## #   tr_tot_data_vol_all_netw_3 <dbl>, tr_tot_data_vol_all_netw_4 <dbl>,
## #   tr_tot_data_vol_all_netw_5 <dbl>, tr_tot_data_vol_all_netw_6 <dbl>,
## #   tr_tot_data_vol_all_netw_7 <dbl>, tr_tot_data_vol_all_netw_8 <dbl>,
## #   tr_tot_data_vol_all_netw_9 <dbl>, tr_tot_data_vol_all_netw_10 <dbl>,
## #   tr_tot_data_vol_all_netw_11 <dbl>, tr_tot_data_vol_all_netw_12 <dbl>,
## #   alloc_rrpu_amt <dbl>, alloc_rcm1pu_amt <dbl>, rrpu_amt_used <chr>,
## #   rcm1pu_amt_used <chr>

How many customers have a subscription that is not “Bredband”?

filter(kunder, !str_detect(pc_priceplan_nm, "Bredband"))

## # A tibble: 257,391 x 25
##    source_date ar_key cust_id pc_l3_pd_spec_nm cpe_type cpe_net_type_cm…
##    <date>      <chr>  <chr>   <chr>            <chr>    <chr>           
##  1 2019-04-30  AAEBf… AAEBfv… MOBILE REGULAR   <NA>     <NA>            
##  2 2019-04-30  AAEBf… AAEBfr… MOBILE REGULAR   SMARTPH… 4G              
##  3 2019-04-30  AAEBf… AAEBfm… MOBILE REGULAR   SMARTPH… 4G              
##  4 2019-04-30  AAEBf… AAEBfm… MOBILE REGULAR   SMARTPH… 4G              
##  5 2019-04-30  AAEBf… AAEBfr… MOBILE REGULAR   SMARTPH… 4G              
##  6 2019-04-30  AAEBf… AAEBfg… MOBILE REGULAR   SMARTPH… 4G              
##  7 2019-04-30  AAEBf… AAEBfg… MOBILE REGULAR   SMARTPH… 4G              
##  8 2019-04-30  AAEBf… AAEBfq… MOBILE REGULAR   SMARTPH… 4G              
##  9 2019-04-30  AAEBf… AAEBfr… MOBILE REGULAR   SMARTPH… 4G              
## 10 2019-04-30  AAEBf… AAEBft… MOBILE REGULAR   SMARTPH… 4G              
## # … with 257,381 more rows, and 19 more variables: pc_priceplan_nm <chr>,
## #   sc_l5_sales_cnl <chr>, rt_fst_cstatus_act_dt <date>,
## #   tr_tot_data_vol_all_netw_1 <dbl>, tr_tot_data_vol_all_netw_2 <dbl>,
## #   tr_tot_data_vol_all_netw_3 <dbl>, tr_tot_data_vol_all_netw_4 <dbl>,
## #   tr_tot_data_vol_all_netw_5 <dbl>, tr_tot_data_vol_all_netw_6 <dbl>,
## #   tr_tot_data_vol_all_netw_7 <dbl>, tr_tot_data_vol_all_netw_8 <dbl>,
## #   tr_tot_data_vol_all_netw_9 <dbl>, tr_tot_data_vol_all_netw_10 <dbl>,
## #   tr_tot_data_vol_all_netw_11 <dbl>, tr_tot_data_vol_all_netw_12 <dbl>,
## #   alloc_rrpu_amt <dbl>, alloc_rcm1pu_amt <dbl>, rrpu_amt_used <chr>,
## #   rcm1pu_amt_used <chr>

…dare I say… knit the document again?

5.6 Excercise 3

Which customer has been “active” longest? What is the date?

arrange(kunder, rt_fst_cstatus_act_dt)

## # A tibble: 300,000 x 25
##    source_date ar_key cust_id pc_l3_pd_spec_nm cpe_type cpe_net_type_cm…
##    <date>      <chr>  <chr>   <chr>            <chr>    <chr>           
##  1 2019-04-30  AAEBf… AAEBfv… MOBILE REGULAR   SMARTPH… 4G              
##  2 2019-04-30  AAEBf… AAEBfn… MOBILE REGULAR   SMARTPH… 4G              
##  3 2019-04-30  AAEBf… AAEBfr… MOBILE REGULAR   SMARTPH… 4G              
##  4 2019-04-30  AAEBf… AAEBfk… MOBILE REGULAR   SMARTPH… 4G              
##  5 2019-04-30  AAEBf… AAEBfm… MOBILE REGULAR   MOBILE … 2G              
##  6 2019-04-30  AAEBf… AAEBfl… MOBILE REGULAR   MOBILE … 2.5G            
##  7 2019-04-30  AAEBf… AAEBfg… MOBILE REGULAR   SMARTPH… 4G              
##  8 2019-04-30  AAEBf… AAEBfi… MOBILE REGULAR   MOBILE … <NA>            
##  9 2019-04-30  AAEBf… AAEBfs… MOBILE REGULAR   SMARTPH… 4G              
## 10 2019-04-30  AAEBf… AAEBfo… MOBILE REGULAR   SMARTPH… 2.5G            
## # … with 299,990 more rows, and 19 more variables: pc_priceplan_nm <chr>,
## #   sc_l5_sales_cnl <chr>, rt_fst_cstatus_act_dt <date>,
## #   tr_tot_data_vol_all_netw_1 <dbl>, tr_tot_data_vol_all_netw_2 <dbl>,
## #   tr_tot_data_vol_all_netw_3 <dbl>, tr_tot_data_vol_all_netw_4 <dbl>,
## #   tr_tot_data_vol_all_netw_5 <dbl>, tr_tot_data_vol_all_netw_6 <dbl>,
## #   tr_tot_data_vol_all_netw_7 <dbl>, tr_tot_data_vol_all_netw_8 <dbl>,
## #   tr_tot_data_vol_all_netw_9 <dbl>, tr_tot_data_vol_all_netw_10 <dbl>,
## #   tr_tot_data_vol_all_netw_11 <dbl>, tr_tot_data_vol_all_netw_12 <dbl>,
## #   alloc_rrpu_amt <dbl>, alloc_rcm1pu_amt <dbl>, rrpu_amt_used <chr>,
## #   rcm1pu_amt_used <chr>

Which customer is most newly active?

arrange(kunder, desc(rt_fst_cstatus_act_dt))

## # A tibble: 300,000 x 25
##    source_date ar_key cust_id pc_l3_pd_spec_nm cpe_type cpe_net_type_cm…
##    <date>      <chr>  <chr>   <chr>            <chr>    <chr>           
##  1 2019-04-30  AAEBf… AAEBfu… MOBILE REGULAR   <NA>     <NA>            
##  2 2019-04-30  AAEBf… AAEBft… MOBILE REGULAR   <NA>     <NA>            
##  3 2019-04-30  AAEBf… AAEBfv… MOBILE REGULAR   <NA>     <NA>            
##  4 2019-04-30  AAEBf… AAEBfq… MOBILE REGULAR   SMARTPH… 4G              
##  5 2019-04-30  AAEBf… AAEBfq… MOBILE REGULAR   <NA>     <NA>            
##  6 2019-04-30  AAEBf… AAEBfl… MOBILE REGULAR   SMARTPH… 4G              
##  7 2019-04-30  AAEBf… AAEBfi… MOBILE REGULAR   <NA>     <NA>            
##  8 2019-04-30  AAEBf… AAEBfg… MOBILE REGULAR   <NA>     <NA>            
##  9 2019-04-30  AAEBf… AAEBfp… MOBILE REGULAR   <NA>     <NA>            
## 10 2019-04-30  AAEBf… AAEBfm… MOBILE REGULAR   <NA>     <NA>            
## # … with 299,990 more rows, and 19 more variables: pc_priceplan_nm <chr>,
## #   sc_l5_sales_cnl <chr>, rt_fst_cstatus_act_dt <date>,
## #   tr_tot_data_vol_all_netw_1 <dbl>, tr_tot_data_vol_all_netw_2 <dbl>,
## #   tr_tot_data_vol_all_netw_3 <dbl>, tr_tot_data_vol_all_netw_4 <dbl>,
## #   tr_tot_data_vol_all_netw_5 <dbl>, tr_tot_data_vol_all_netw_6 <dbl>,
## #   tr_tot_data_vol_all_netw_7 <dbl>, tr_tot_data_vol_all_netw_8 <dbl>,
## #   tr_tot_data_vol_all_netw_9 <dbl>, tr_tot_data_vol_all_netw_10 <dbl>,
## #   tr_tot_data_vol_all_netw_11 <dbl>, tr_tot_data_vol_all_netw_12 <dbl>,
## #   alloc_rrpu_amt <dbl>, alloc_rcm1pu_amt <dbl>, rrpu_amt_used <chr>,
## #   rcm1pu_amt_used <chr>

5.7 Excercise 4

Choose all columns that contain ”nm"

select(kunder, contains("nm"))

## # A tibble: 300,000 x 2
##    pc_l3_pd_spec_nm pc_priceplan_nm           
##    <chr>            <chr>                     
##  1 MOBILE REGULAR   Kompis                    
##  2 MOBILE REGULAR   Fast pris 20 GB           
##  3 MOBILE REGULAR   Fast pris +EU 15 GB       
##  4 MOBILE REGULAR   Fast pris +EU 15 GB - 2018
##  5 MOBILE REGULAR   Fast pris                 
##  6 MOBILE REGULAR   Fast pris +EU 5 GB        
##  7 MOBILE REGULAR   Rörligt pris              
##  8 MOBILE REGULAR   Fast pris +EU 1 GB        
##  9 MOBILE REGULAR   Fast pris                 
## 10 MOBILE REGULAR   Fast pris                 
## # … with 299,990 more rows

Choose the column for customer ID and all columns that starts with ”tr_tot"

select(kunder, cust_id, starts_with("tr_tot"))

## # A tibble: 300,000 x 13
##    cust_id tr_tot_data_vol… tr_tot_data_vol… tr_tot_data_vol…
##    <chr>              <dbl>            <dbl>            <dbl>
##  1 AAEBfv…              0                0                0  
##  2 AAEBfr…           5252.            4258.            1719. 
##  3 AAEBfm…           2844.            8480.            6746. 
##  4 AAEBfm…           3405.            5576.            2671. 
##  5 AAEBfr…          16004.           17052.           17990. 
##  6 AAEBfg…              0.3              5.1            830. 
##  7 AAEBfg…              0                0                0  
##  8 AAEBfq…             28.3             30.4             28.5
##  9 AAEBfr…           6048.            6750             5277. 
## 10 AAEBft…           3986.            3583.            2584. 
## # … with 299,990 more rows, and 9 more variables:
## #   tr_tot_data_vol_all_netw_4 <dbl>, tr_tot_data_vol_all_netw_5 <dbl>,
## #   tr_tot_data_vol_all_netw_6 <dbl>, tr_tot_data_vol_all_netw_7 <dbl>,
## #   tr_tot_data_vol_all_netw_8 <dbl>, tr_tot_data_vol_all_netw_9 <dbl>,
## #   tr_tot_data_vol_all_netw_10 <dbl>, tr_tot_data_vol_all_netw_11 <dbl>,
## #   tr_tot_data_vol_all_netw_12 <dbl>

Rename ”pc_priceplan_nm" to ”price_plan"

rename(kunder, price_plan = pc_priceplan_nm)

## # A tibble: 300,000 x 25
##    source_date ar_key cust_id pc_l3_pd_spec_nm cpe_type cpe_net_type_cm…
##    <date>      <chr>  <chr>   <chr>            <chr>    <chr>           
##  1 2019-04-30  AAEBf… AAEBfv… MOBILE REGULAR   <NA>     <NA>            
##  2 2019-04-30  AAEBf… AAEBfr… MOBILE REGULAR   SMARTPH… 4G              
##  3 2019-04-30  AAEBf… AAEBfm… MOBILE REGULAR   SMARTPH… 4G              
##  4 2019-04-30  AAEBf… AAEBfm… MOBILE REGULAR   SMARTPH… 4G              
##  5 2019-04-30  AAEBf… AAEBfr… MOBILE REGULAR   SMARTPH… 4G              
##  6 2019-04-30  AAEBf… AAEBfg… MOBILE REGULAR   SMARTPH… 4G              
##  7 2019-04-30  AAEBf… AAEBfg… MOBILE REGULAR   SMARTPH… 4G              
##  8 2019-04-30  AAEBf… AAEBfq… MOBILE REGULAR   SMARTPH… 4G              
##  9 2019-04-30  AAEBf… AAEBfr… MOBILE REGULAR   SMARTPH… 4G              
## 10 2019-04-30  AAEBf… AAEBft… MOBILE REGULAR   SMARTPH… 4G              
## # … with 299,990 more rows, and 19 more variables: price_plan <chr>,
## #   sc_l5_sales_cnl <chr>, rt_fst_cstatus_act_dt <date>,
## #   tr_tot_data_vol_all_netw_1 <dbl>, tr_tot_data_vol_all_netw_2 <dbl>,
## #   tr_tot_data_vol_all_netw_3 <dbl>, tr_tot_data_vol_all_netw_4 <dbl>,
## #   tr_tot_data_vol_all_netw_5 <dbl>, tr_tot_data_vol_all_netw_6 <dbl>,
## #   tr_tot_data_vol_all_netw_7 <dbl>, tr_tot_data_vol_all_netw_8 <dbl>,
## #   tr_tot_data_vol_all_netw_9 <dbl>, tr_tot_data_vol_all_netw_10 <dbl>,
## #   tr_tot_data_vol_all_netw_11 <dbl>, tr_tot_data_vol_all_netw_12 <dbl>,
## #   alloc_rrpu_amt <dbl>, alloc_rcm1pu_amt <dbl>, rrpu_amt_used <chr>,
## #   rcm1pu_amt_used <chr>

5.8 Excercise 5

Create a new variable that is the mean of the last 3 months of data consumption for all customers, save this to the data set

kunder <- mutate(kunder, mean_3_months = mean(tr_tot_data_vol_all_netw_1 + tr_tot_data_vol_all_netw_2 + tr_tot_data_vol_all_netw_3, na.rm = T))

Create a variable that takes the logarithm with base 10 (log10) of your previously created column

mutate(kunder, log10_mean_3_months = log10(mean_3_months))

## # A tibble: 300,000 x 27
##    source_date ar_key cust_id pc_l3_pd_spec_nm cpe_type cpe_net_type_cm…
##    <date>      <chr>  <chr>   <chr>            <chr>    <chr>           
##  1 2019-04-30  AAEBf… AAEBfv… MOBILE REGULAR   <NA>     <NA>            
##  2 2019-04-30  AAEBf… AAEBfr… MOBILE REGULAR   SMARTPH… 4G              
##  3 2019-04-30  AAEBf… AAEBfm… MOBILE REGULAR   SMARTPH… 4G              
##  4 2019-04-30  AAEBf… AAEBfm… MOBILE REGULAR   SMARTPH… 4G              
##  5 2019-04-30  AAEBf… AAEBfr… MOBILE REGULAR   SMARTPH… 4G              
##  6 2019-04-30  AAEBf… AAEBfg… MOBILE REGULAR   SMARTPH… 4G              
##  7 2019-04-30  AAEBf… AAEBfg… MOBILE REGULAR   SMARTPH… 4G              
##  8 2019-04-30  AAEBf… AAEBfq… MOBILE REGULAR   SMARTPH… 4G              
##  9 2019-04-30  AAEBf… AAEBfr… MOBILE REGULAR   SMARTPH… 4G              
## 10 2019-04-30  AAEBf… AAEBft… MOBILE REGULAR   SMARTPH… 4G              
## # … with 299,990 more rows, and 21 more variables: pc_priceplan_nm <chr>,
## #   sc_l5_sales_cnl <chr>, rt_fst_cstatus_act_dt <date>,
## #   tr_tot_data_vol_all_netw_1 <dbl>, tr_tot_data_vol_all_netw_2 <dbl>,
## #   tr_tot_data_vol_all_netw_3 <dbl>, tr_tot_data_vol_all_netw_4 <dbl>,
## #   tr_tot_data_vol_all_netw_5 <dbl>, tr_tot_data_vol_all_netw_6 <dbl>,
## #   tr_tot_data_vol_all_netw_7 <dbl>, tr_tot_data_vol_all_netw_8 <dbl>,
## #   tr_tot_data_vol_all_netw_9 <dbl>, tr_tot_data_vol_all_netw_10 <dbl>,
## #   tr_tot_data_vol_all_netw_11 <dbl>, tr_tot_data_vol_all_netw_12 <dbl>,
## #   alloc_rrpu_amt <dbl>, alloc_rcm1pu_amt <dbl>, rrpu_amt_used <chr>,
…
