Chapter 4 Data manipulation with dplyr | Introduction to R
…
4.1 Excercise

Import the customer data into R using read_csv("path"), save it to a data.frame

Use glimpse() on it

4.2 filter()

filter() is a function that let’s you filter out rows that meet certain conditions.

filter(flights, month == 2)

## # A tibble: 24,951 x 19
##     year month   day dep_time sched_dep_time dep_delay arr_time
##    <int> <int> <int>    <int>          <int>     <dbl>    <int>
##  1  2013     2     1      456            500        -4      652
##  2  2013     2     1      520            525        -5      816
##  3  2013     2     1      527            530        -3      837
##  4  2013     2     1      532            540        -8     1007
##  5  2013     2     1      540            540         0      859
##  6  2013     2     1      552            600        -8      714
##  7  2013     2     1      552            600        -8      919
##  8  2013     2     1      552            600        -8      655
##  9  2013     2     1      553            600        -7      833
## 10  2013     2     1      553            600        -7      821
## # … with 24,941 more rows, and 12 more variables: sched_arr_time <int>,
## #   arr_delay <dbl>, carrier <chr>, flight <int>, tailnum <chr>,
## #   origin <chr>, dest <chr>, air_time <dbl>, distance <dbl>, hour <dbl>,
## #   minute <dbl>, time_hour <dttm>

We can also use text:

filter(flights, origin == "JFK")

## # A tibble: 111,279 x 19
##     year month   day dep_time sched_dep_time dep_delay arr_time
##    <int> <int> <int>    <int>          <int>     <dbl>    <int>
##  1  2013     1     1      542            540         2      923
##  2  2013     1     1      544            545        -1     1004
##  3  2013     1     1      557            600        -3      838
##  4  2013     1     1      558            600        -2      849
##  5  2013     1     1      558            600        -2      853
##  6  2013     1     1      558            600        -2      924
##  7  2013     1     1      559            559         0      702
##  8  2013     1     1      606            610        -4      837
##  9  2013     1     1      611            600        11      945
## 10  2013     1     1      613            610         3      925
## # … with 111,269 more rows, and 12 more variables: sched_arr_time <int>,
## #   arr_delay <dbl>, carrier <chr>, flight <int>, tailnum <chr>,
## #   origin <chr>, dest <chr>, air_time <dbl>, distance <dbl>, hour <dbl>,
## #   minute <dbl>, time_hour <dttm>

And combine them:

filter(flights, origin == "JFK" & month == 2)

## # A tibble: 8,421 x 19
##     year month   day dep_time sched_dep_time dep_delay arr_time
##    <int> <int> <int>    <int>          <int>     <dbl>    <int>
##  1  2013     2     1      532            540        -8     1007
##  2  2013     2     1      540            540         0      859
##  3  2013     2     1      552            600        -8      714
##  4  2013     2     1      554            601        -7      920
##  5  2013     2     1      555            600        -5      903
##  6  2013     2     1      558            600        -2      916
##  7  2013     2     1      559            600        -1      923
##  8  2013     2     1      602            600         2      655
##  9  2013     2     1      609            610        -1      902
## 10  2013     2     1      610            615        -5      905
## # … with 8,411 more rows, and 12 more variables: sched_arr_time <int>,
## #   arr_delay <dbl>, carrier <chr>, flight <int>, tailnum <chr>,
## #   origin <chr>, dest <chr>, air_time <dbl>, distance <dbl>, hour <dbl>,
## #   minute <dbl>, time_hour <dttm>

We can also filter out every row that meets a condition in a vector, for instance:

filter(flights, origin %in% c("JFK", "LGA")) 

## # A tibble: 215,941 x 19
##     year month   day dep_time sched_dep_time dep_delay arr_time
##    <int> <int> <int>    <int>          <int>     <dbl>    <int>
##  1  2013     1     1      533            529         4      850
##  2  2013     1     1      542            540         2      923
##  3  2013     1     1      544            545        -1     1004
##  4  2013     1     1      554            600        -6      812
##  5  2013     1     1      557            600        -3      709
##  6  2013     1     1      557            600        -3      838
##  7  2013     1     1      558            600        -2      753
##  8  2013     1     1      558            600        -2      849
##  9  2013     1     1      558            600        -2      853
## 10  2013     1     1      558            600        -2      924
## # … with 215,931 more rows, and 12 more variables: sched_arr_time <int>,
## #   arr_delay <dbl>, carrier <chr>, flight <int>, tailnum <chr>,
## #   origin <chr>, dest <chr>, air_time <dbl>, distance <dbl>, hour <dbl>,
## #   minute <dbl>, time_hour <dttm>
…
## [1] "äpple"  "oränge" "bänana"

Or str_remove()

str_remove(frukt, "a")

## [1] "pple"  "ornge" "bnana"

4.3.3 stringr in filter()

We can use stringr in filter():

filter(flights, str_detect(carrier, "U"))

## # A tibble: 79,201 x 19
##     year month   day dep_time sched_dep_time dep_delay arr_time
##    <int> <int> <int>    <int>          <int>     <dbl>    <int>
##  1  2013     1     1      517            515         2      830
##  2  2013     1     1      533            529         4      850
##  3  2013     1     1      554            558        -4      740
##  4  2013     1     1      558            600        -2      924
##  5  2013     1     1      558            600        -2      923
##  6  2013     1     1      559            600        -1      854
##  7  2013     1     1      607            607         0      858
##  8  2013     1     1      611            600        11      945
##  9  2013     1     1      622            630        -8     1017
## 10  2013     1     1      623            627        -4      933
## # … with 79,191 more rows, and 12 more variables: sched_arr_time <int>,
## #   arr_delay <dbl>, carrier <chr>, flight <int>, tailnum <chr>,
## #   origin <chr>, dest <chr>, air_time <dbl>, distance <dbl>, hour <dbl>,
## #   minute <dbl>, time_hour <dttm>
…
## [1]  TRUE  TRUE FALSE

4.5 Excercise 2

How many customers have a subscription with “Fast pris”?

How many customers have a subscription that is not “Bredband”?

4.6 arrange()

arrange() is a verb for sorting data.frames.

arrange(flights, dep_delay)

## # A tibble: 336,776 x 19
##     year month   day dep_time sched_dep_time dep_delay arr_time
##    <int> <int> <int>    <int>          <int>     <dbl>    <int>
##  1  2013    12     7     2040           2123       -43       40
##  2  2013     2     3     2022           2055       -33     2240
##  3  2013    11    10     1408           1440       -32     1549
##  4  2013     1    11     1900           1930       -30     2233
##  5  2013     1    29     1703           1730       -27     1947
##  6  2013     8     9      729            755       -26     1002
##  7  2013    10    23     1907           1932       -25     2143
##  8  2013     3    30     2030           2055       -25     2213
##  9  2013     3     2     1431           1455       -24     1601
## 10  2013     5     5      934            958       -24     1225
## # … with 336,766 more rows, and 12 more variables: sched_arr_time <int>,
## #   arr_delay <dbl>, carrier <chr>, flight <int>, tailnum <chr>,
## #   origin <chr>, dest <chr>, air_time <dbl>, distance <dbl>, hour <dbl>,
## #   minute <dbl>, time_hour <dttm>

If you instead want to sort in descending order you can write like this:

arrange(flights, desc(dep_delay))

## # A tibble: 336,776 x 19
##     year month   day dep_time sched_dep_time dep_delay arr_time
##    <int> <int> <int>    <int>          <int>     <dbl>    <int>
##  1  2013     1     9      641            900      1301     1242
##  2  2013     6    15     1432           1935      1137     1607
##  3  2013     1    10     1121           1635      1126     1239
##  4  2013     9    20     1139           1845      1014     1457
##  5  2013     7    22      845           1600      1005     1044
##  6  2013     4    10     1100           1900       960     1342
##  7  2013     3    17     2321            810       911      135
##  8  2013     6    27      959           1900       899     1236
##  9  2013     7    22     2257            759       898      121
## 10  2013    12     5      756           1700       896     1058
## # … with 336,766 more rows, and 12 more variables: sched_arr_time <int>,
## #   arr_delay <dbl>, carrier <chr>, flight <int>, tailnum <chr>,
## #   origin <chr>, dest <chr>, air_time <dbl>, distance <dbl>, hour <dbl>,
## #   minute <dbl>, time_hour <dttm>
4.6.0.1 Excercise 3

Which customer has been “active” longest? What is the date?

Which customer is most newly active?

4.7 select()

select() is a verb for selecting columns in a data.frame.

You can choose columns by their name:

select(flights, year, month, day, origin)

## # A tibble: 336,776 x 4
##     year month   day origin
##    <int> <int> <int> <chr> 
##  1  2013     1     1 EWR   
##  2  2013     1     1 LGA   
##  3  2013     1     1 JFK   
##  4  2013     1     1 JFK   
##  5  2013     1     1 LGA   
##  6  2013     1     1 EWR   
##  7  2013     1     1 EWR   
##  8  2013     1     1 LGA   
##  9  2013     1     1 JFK   
## 10  2013     1     1 LGA   
## # … with 336,766 more rows

You can also choose columns based on their numerical order

select(flights, 1:5)

## # A tibble: 336,776 x 5
##     year month   day dep_time sched_dep_time
##    <int> <int> <int>    <int>          <int>
##  1  2013     1     1      517            515
##  2  2013     1     1      533            529
##  3  2013     1     1      542            540
##  4  2013     1     1      544            545
##  5  2013     1     1      554            600
##  6  2013     1     1      554            558
##  7  2013     1     1      555            600
##  8  2013     1     1      557            600
##  9  2013     1     1      557            600
## 10  2013     1     1      558            600
## # … with 336,766 more rows

You can select all the columns from column_a to column_d with: :

select(flights, year:origin)

## # A tibble: 336,776 x 13
##     year month   day dep_time sched_dep_time dep_delay arr_time
##    <int> <int> <int>    <int>          <int>     <dbl>    <int>
##  1  2013     1     1      517            515         2      830
##  2  2013     1     1      533            529         4      850
##  3  2013     1     1      542            540         2      923
##  4  2013     1     1      544            545        -1     1004
##  5  2013     1     1      554            600        -6      812
##  6  2013     1     1      554            558        -4      740
##  7  2013     1     1      555            600        -5      913
##  8  2013     1     1      557            600        -3      709
##  9  2013     1     1      557            600        -3      838
## 10  2013     1     1      558            600        -2      753
## # … with 336,766 more rows, and 6 more variables: sched_arr_time <int>,
## #   arr_delay <dbl>, carrier <chr>, flight <int>, tailnum <chr>,
## #   origin <chr>

4.7.1 Help functions

When you do data science you often want to move columns for different reasons. Not seldom you want to put one column first and the rest after. For this you can use the help function everything():

select(flights, origin, everything())

## # A tibble: 336,776 x 19
##    origin  year month   day dep_time sched_dep_time dep_delay arr_time
##    <chr>  <int> <int> <int>    <int>          <int>     <dbl>    <int>
##  1 EWR     2013     1     1      517            515         2      830
##  2 LGA     2013     1     1      533            529         4      850
##  3 JFK     2013     1     1      542            540         2      923
##  4 JFK     2013     1     1      544            545        -1     1004
##  5 LGA     2013     1     1      554            600        -6      812
##  6 EWR     2013     1     1      554            558        -4      740
##  7 EWR     2013     1     1      555            600        -5      913
##  8 LGA     2013     1     1      557            600        -3      709
##  9 JFK     2013     1     1      557            600        -3      838
## 10 LGA     2013     1     1      558            600        -2      753
## # … with 336,766 more rows, and 11 more variables: sched_arr_time <int>,
## #   arr_delay <dbl>, carrier <chr>, flight <int>, tailnum <chr>,
## #   dest <chr>, air_time <dbl>, distance <dbl>, hour <dbl>, minute <dbl>,
## #   time_hour <dttm>
…
starts_with(“asd”)

ends_with(“air”)

contains(“flyg”)

matches(“asd”)

num_range(“flyg”, 1:10) matches flyg1, flyg2 … flyg10

You can use these in the same way as everything().

select(flights, origin, starts_with("m"))

## # A tibble: 336,776 x 3
##    origin month minute
##    <chr>  <int>  <dbl>
##  1 EWR        1     15
##  2 LGA        1     29
##  3 JFK        1     40
##  4 JFK        1     45
##  5 LGA        1      0
##  6 EWR        1     58
##  7 EWR        1      0
##  8 LGA        1      0
##  9 JFK        1      0
## 10 LGA        1      0
## # … with 336,766 more rows

4.8 rename()

To rename a variable you use rename(data, new_variable = old_variable)

rename(flights, år = year)

## # A tibble: 336,776 x 19
##       år month   day dep_time sched_dep_time dep_delay arr_time
##    <int> <int> <int>    <int>          <int>     <dbl>    <int>
##  1  2013     1     1      517            515         2      830
##  2  2013     1     1      533            529         4      850
##  3  2013     1     1      542            540         2      923
##  4  2013     1     1      544            545        -1     1004
##  5  2013     1     1      554            600        -6      812
##  6  2013     1     1      554            558        -4      740
##  7  2013     1     1      555            600        -5      913
##  8  2013     1     1      557            600        -3      709
##  9  2013     1     1      557            600        -3      838
## 10  2013     1     1      558            600        -2      753
## # … with 336,766 more rows, and 12 more variables: sched_arr_time <int>,
## #   arr_delay <dbl>, carrier <chr>, flight <int>, tailnum <chr>,
## #   origin <chr>, dest <chr>, air_time <dbl>, distance <dbl>, hour <dbl>,
## #   minute <dbl>, time_hour <dttm>
…
Choose all columns that contain ”nm"

Choose the column for customer ID and all columns that starts with ”tr_tot"

Rename ”pc_priceplan_nm" to ”price_plan"

4.10 mutate()

mutate() is a verb for manipulating and creating new columns

Below we create a new column with the mean of departure delay.

mutate(flights, mean_dep_delay = mean(dep_delay))

## # A tibble: 336,776 x 20
##     year month   day dep_time sched_dep_time dep_delay arr_time
##    <int> <int> <int>    <int>          <int>     <dbl>    <int>
##  1  2013     1     1      517            515         2      830
##  2  2013     1     1      533            529         4      850
##  3  2013     1     1      542            540         2      923
##  4  2013     1     1      544            545        -1     1004
##  5  2013     1     1      554            600        -6      812
##  6  2013     1     1      554            558        -4      740
##  7  2013     1     1      555            600        -5      913
##  8  2013     1     1      557            600        -3      709
##  9  2013     1     1      557            600        -3      838
## 10  2013     1     1      558            600        -2      753
## # … with 336,766 more rows, and 13 more variables: sched_arr_time <int>,
## #   arr_delay <dbl>, carrier <chr>, flight <int>, tailnum <chr>,
## #   origin <chr>, dest <chr>, air_time <dbl>, distance <dbl>, hour <dbl>,
## #   minute <dbl>, time_hour <dttm>, mean_dep_delay <dbl>

You can also use with simple mathematical operators mutate():

mutate(flights, beer_time = dep_delay - arr_delay)

## # A tibble: 336,776 x 20
##     year month   day dep_time sched_dep_time dep_delay arr_time
##    <int> <int> <int>    <int>          <int>     <dbl>    <int>
##  1  2013     1     1      517            515         2      830
##  2  2013     1     1      533            529         4      850
##  3  2013     1     1      542            540         2      923
##  4  2013     1     1      544            545        -1     1004
##  5  2013     1     1      554            600        -6      812
##  6  2013     1     1      554            558        -4      740
##  7  2013     1     1      555            600        -5      913
##  8  2013     1     1      557            600        -3      709
##  9  2013     1     1      557            600        -3      838
## 10  2013     1     1      558            600        -2      753
## # … with 336,766 more rows, and 13 more variables: sched_arr_time <int>,
## #   arr_delay <dbl>, carrier <chr>, flight <int>, tailnum <chr>,
## #   origin <chr>, dest <chr>, air_time <dbl>, distance <dbl>, hour <dbl>,
## #   minute <dbl>, time_hour <dttm>, beer_time <dbl>

There is a variant of mutate mutate() calledtransmute() that will return only the column that you have maniuplated.

transmute(flights, beer_time = dep_delay - arr_delay)

## # A tibble: 336,776 x 1
##    beer_time
##        <dbl>
##  1        -9
##  2       -16
##  3       -31
##  4        17
##  5        19
##  6       -16
##  7       -24
##  8        11
##  9         5
## 10       -10
## # … with 336,766 more rows
…
rank(), min_rank(), dense_rank(), percent_rank() to rank

log(), log10() to take the log of a variable

cumsum(), cummean() for cummulative stats

row_number() if you need to create rownumbers

lead() and lag()

For example we can lag departure delay and save it in a new variable.

transmute(flights, lag_dep_delay = lag(dep_delay))

## # A tibble: 336,776 x 1
##    lag_dep_delay
##            <dbl>
##  1            NA
##  2             2
##  3             4
##  4             2
##  5            -1
##  6            -6
##  7            -4
##  8            -5
##  9            -3
## 10            -3
## # … with 336,766 more rows

4.10.1 if_else()

A common task in Excel or any other programming languange is to compose if else-statements.

The best way to do this in R is with the function if_else()

transmute(flights, försenad = if_else(dep_delay  > 5, true = "försenad", false = "ej försenad"))

## # A tibble: 336,776 x 1
##    försenad   
##    <chr>      
##  1 ej försenad
##  2 ej försenad
##  3 ej försenad
##  4 ej försenad
##  5 ej försenad
##  6 ej försenad
##  7 ej försenad
##  8 ej försenad
##  9 ej försenad
## 10 ej försenad
## # … with 336,766 more rows

If you want to make multiple if else-statements, instead of making multiple if else-statements you can use the case_when() function:

transmute(flights, försenad_kat = case_when(
  dep_delay + arr_delay > 80 ~ "mycket_försenad",
  dep_delay + arr_delay > 0 ~ "ganska_försenad",
  dep_delay + arr_delay  <= 0 ~ "ej_försenad",
  TRUE ~ "okänd"))

## # A tibble: 336,776 x 1
##    försenad_kat   
##    <chr>          
##  1 ganska_försenad
##  2 ganska_försenad
##  3 ganska_försenad
##  4 ej_försenad    
##  5 ej_försenad    
##  6 ganska_försenad
##  7 ganska_försenad
##  8 ej_försenad    
##  9 ej_försenad    
## 10 ganska_försenad
## # … with 336,766 more rows
…
